…
Create city_state variable, summarize homicide data by city_state.

``` r
homicide_data <-
  homicide_data |>
  mutate(
    city_state = str_c(city, ", ", state)
  )

homicide_data |>
  group_by(city_state) |>
  summarize(n_obs = n())
```

    ## # A tibble: 51 × 2
    ##    city_state      n_obs
    ##    <chr>           <int>
    ##  1 Albuquerque, NM   378
    ##  2 Atlanta, GA       973
    ##  3 Baltimore, MD    2827
    ##  4 Baton Rouge, LA   424
    ##  5 Birmingham, AL    800
    ##  6 Boston, MA        614
    ##  7 Buffalo, NY       521
    ##  8 Charlotte, NC     687
    ##  9 Chicago, IL      5535
    ## 10 Cincinnati, OH    694
    ## # ℹ 41 more rows

``` r
homicide_data |> 
  filter(disposition != "Closed by arrest") |> 
  group_by(city_state, disposition) |> 
  summarize(n_obs = n())
```

    ## `summarise()` has grouped output by 'city_state'. You can override using the
    ## `.groups` argument.

    ## # A tibble: 95 × 3
    ## # Groups:   city_state [50]
    ##    city_state      disposition           n_obs
    ##    <chr>           <chr>                 <int>
    ##  1 Albuquerque, NM Closed without arrest    52
    ##  2 Albuquerque, NM Open/No arrest           94
    ##  3 Atlanta, GA     Closed without arrest    58
    ##  4 Atlanta, GA     Open/No arrest          315
    ##  5 Baltimore, MD   Closed without arrest   152
    ##  6 Baltimore, MD   Open/No arrest         1673
    ##  7 Baton Rouge, LA Closed without arrest    16
    ##  8 Baton Rouge, LA Open/No arrest          180
    ##  9 Birmingham, AL  Closed without arrest    64
    ## 10 Birmingham, AL  Open/No arrest          283
    ## # ℹ 85 more rows
…
